{
	"text": "Reuben Lillie (Salviati) enlivened the Venetian trio with a memorable turn that was marked by bravado and characterful phrasing. His virile sound was well-served by a reliable technique.",
	"cite": "James Sohre, <em>Opera Today</em>",
	"src": "http://www.operatoday.com/content/2016/07/des_moines_jewe.php"
}
