{
  "name": "Moses Hogan",
  "works": [
    {
      "title": "“Deep River”"
    },
    {
      "title": "“Somebody’s Knockin’ at Yo’ Door”"
    },
    {
      "title": "“Sometimes I Feel Like a Motherless Child”"
    }
  ]
}
