{
  "name": "Franz Schubert",
  "works": [
    {
      "title": "“Die Fischer”",
      "opusNumber": "Op. 5, No. 3, D 225"
    },
    {
      "title": "“Die Forelle”",
      "opusNumber": "Op. 32, D 550"
    },
    {
      "title": "Die schöne Müllerin",
      "opusNumber": "Op. 25, D 795"
    },
    {
      "title": "“Morgenlied”",
      "opusNumber": "Op. 4, No. 2, D 685"
    },
    {
      "title": "“Ständchen”",
      "opusNumber": "D 889"
    },
    {
      "title": "“Ständchen”",
      "opusNumber": "D 957"
    },
    {
      "title": "Winterreise",
      "opusNumber": "Op. 89, D 911"
    }
  ]
}
